{
  "project_info": {
    "project_number": "120310483027",
    "firebase_url": "https://gamblero-9d915.firebaseio.com",
    "project_id": "gamblero-9d915",
    "storage_bucket": "gamblero-9d915.appspot.com"
  },
  "client": [
    {
      "client_info": {
        "mobilesdk_app_id": "1:120310483027:android:47e2d814afb5c420",
        "android_client_info": {
          "package_name": "main.gamblero"
        }
      },
      "oauth_client": [
        {
          "client_id": "120310483027-alitp22en344ju5vrrp86ccngst868ub.apps.googleusercontent.com",
          "client_type": 1,
          "android_info": {
            "package_name": "main.gamblero",
            "certificate_hash": "a07c2050b0c17b171722d914b56aed792fbd25a6"
          }
        },
        {
          "client_id": "120310483027-kvbufssd4vshanj5kb9ikv0f4jl71ppg.apps.googleusercontent.com",
          "client_type": 3
        }
      ],
      "api_key": [
        {
          "current_key": "AIzaSyAsEbCYxRTwBqiDQ3AIO7dHdHHUSKdHRwc"
        }
      ],
      "services": {
        "analytics_service": {
          "status": 1
        },
        "appinvite_service": {
          "status": 2,
          "other_platform_oauth_client": [
            {
              "client_id": "120310483027-kvbufssd4vshanj5kb9ikv0f4jl71ppg.apps.googleusercontent.com",
              "client_type": 3
            }
          ]
        },
        "ads_service": {
          "status": 2
        }
      }
    }
  ],
  "configuration_version": "1"
}